"system","task","file","ds"
"Library system","Sort execution flow","main.k",56
"Library system","Sort execution flow","borrow_library_items.k",115
"Library system","Sort execution flow","book.k",41
"Library system","Sort execution flow","borrow_library_items.k",431
"Library system","Sort execution flow","main.k",19
"Library system","Sort execution flow","item_record.k",29
"Library system","Sort execution flow","book.k",15
"Library system","Sort execution flow","mock_book_scanner.k",35
"Library system","Sort execution flow","paper_printer.k",12
"Library system","Sort execution flow","item_record.k",8
"Library system","Sort execution flow","mock_card_reader.k",14
"Library system","Sort execution flow","borrow_library_items.k",673
"Library system","Sort execution flow","mock_card_reader.k",42
"Library system","Sort execution flow","borrow_library_items.k",47
"Library system","Sort execution flow","mock_book_scanner.k",22
"Library system","Sort execution flow","borrow_library_items.k",722
"Library system","Sort execution flow","mock_card_reader.k",32
"Library system","Sort execution flow","borrow_library_items.k",318
"Library system","Sort execution flow","item_record.k",27
"Library system","Sort execution flow","borrow_library_items.k",553
"Library system","Sort execution flow","borrow_library_items.k",70
"Library system","Sort execution flow","borrow_library_items.k",78
"Library system","Sort execution flow","borrow_library_items.k",26
"Library system","Sort execution flow","borrow_library_items.k",49
"Library system","Sort execution flow","borrow_library_items.k",48
"Library system","Sort execution flow","borrow_library_items.k",191
"Library system","Sort execution flow","paper_printer.k",66
"Library system","Sort execution flow","borrow_library_items.k",192
"Library system","Sort execution flow","borrow_library_items.k",215
"Library system","Sort execution flow","borrow_library_items.k",189
"Library system","Check implemented features","borrow_library_items.k",218
"Library system","Check implemented features","borrow_library_items.k",59
"Library system","Check implemented features","book.k",36
"Library system","Check implemented features","borrow_library_items.k",82
"Library system","Check implemented features","item_record.k",16
"Library system","Check implemented features","mock_book_scanner.k",94
"Library system","Check implemented features","borrow_library_items.k",111
"Library system","Check implemented features","borrow_library_items.k",491
"Library system","Check implemented features","borrow_library_items.k",143
"Library system","Check implemented features","mock_card_reader.k",26
"Library system","Check implemented features","mock_book_scanner.k",120
"Library system","Check implemented features","item_record.k",29
"Library system","Check implemented features","mock_card_reader.k",12
"Library system","Check implemented features","book.k",19
"Library system","Check implemented features","paper_printer.k",18
"Library system","Check implemented features","item_record.k",12
"Library system","Check implemented features","borrow_library_items.k",9
"Library system","Check implemented features","mock_book_scanner.k",90
"Library system","Look for changed and unchanged objects","mock_book_scanner.k",20
"Library system","Look for changed and unchanged objects","mock_card_reader.k",18
"Library system","Look for changed and unchanged objects","paper_printer.k",20
"Library system","Describe objects interactions","borrow_library_items.k",101
"Library system","Describe objects interactions","borrow_library_items.k",36
"Library system","Describe objects interactions","borrow_library_items.k",141
"Library system","Describe objects interactions","borrow_library_items.k",119
"Library system","Describe objects interactions","borrow_library_items.k",170
"Library system","Describe objects interactions","borrow_library_items.k",68
"Library system","Describe objects interactions","borrow_library_items.k",32
"Library system","Describe objects interactions","borrow_library_items.k",137
