"system","task","file","ds"
"Library system","Sort execution flow","main.k",77
"Library system","Sort execution flow","borrow_library_items.k",190
"Library system","Sort execution flow","main.k",22
"Library system","Sort execution flow","borrow_library_items.k",373
"Library system","Sort execution flow","mock_card_reader.k",13
"Library system","Sort execution flow","borrow_library_items.k",7
"Library system","Sort execution flow","mock_book_scanner.k",14
"Library system","Sort execution flow","paper_printer.k",10
"Library system","Sort execution flow","item_record.k",9
"Library system","Sort execution flow","book.k",6
"Library system","Sort execution flow","mock_book_scanner.k",22
"Library system","Sort execution flow","borrow_library_items.k",16
"Library system","Sort execution flow","paper_printer.k",13
"Library system","Sort execution flow","main.k",21
"Library system","Sort execution flow","borrow_library_items.k",436
"Library system","Sort execution flow","mock_book_scanner.k",330
"Library system","Sort execution flow","paper_printer.k",18
"Library system","Sort execution flow","borrow_library_items.k",256
"Library system","Sort execution flow","mock_book_scanner.k",42
"Library system","Sort execution flow","borrow_library_items.k",144
"Library system","Sort execution flow","mock_card_reader.k",88
"Library system","Sort execution flow","mock_book_scanner.k",23
"Library system","Sort execution flow","borrow_library_items.k",100
"Library system","Sort execution flow","mock_card_reader.k",44
"Library system","Sort execution flow","borrow_library_items.k",228
"Library system","Sort execution flow","main.k",29
"Library system","Sort execution flow","borrow_library_items.k",87
"Library system","Describe objects interactions","main.k",16
"Library system","Describe objects interactions","main.k",15
"Library system","Describe objects interactions","book.k",30
"Library system","Describe objects interactions","book.k",25
"Library system","Describe objects interactions","book.k",17
"Library system","Describe objects interactions","item_record.k",22
"Library system","Describe objects interactions","paper_printer.k",28
"Library system","Describe objects interactions","mock_book_scanner.k",33
"Library system","Describe objects interactions","borrow_library_items.k",226
"Library system","Check implemented features","mock_card_reader.k",22
"Library system","Check implemented features","main.k",29
"Library system","Check implemented features","mock_book_scanner.k",31
"Library system","Check implemented features","borrow_library_items.k",97
"Library system","Check implemented features","borrow_library_items.k",22
"Library system","Check implemented features","book.k",10
"Library system","Check implemented features","item_record.k",8
"Library system","Check implemented features","paper_printer.k",12
"Library system","Check implemented features","mock_book_scanner.k",35
"Library system","Check implemented features","main.k",12
"Library system","Look for changed and unchanged objects","item_record.k",13
"Library system","Look for changed and unchanged objects","book.k",15
"Library system","Look for changed and unchanged objects","mock_book_scanner.k",42
"Library system","Look for changed and unchanged objects","mock_book_scanner.k",18
"Library system","Look for changed and unchanged objects","borrow_library_items.k",17
"Library system","Look for changed and unchanged objects","mock_book_scanner.k",20
"Library system","Look for changed and unchanged objects","paper_printer.k",31
"Library system","Look for changed and unchanged objects","paper_printer.k",18
"Library system","Look for changed and unchanged objects","paper_printer.k",15
"Library system","Look for changed and unchanged objects","paper_printer.k",22
