"system","task","file","ds"
"Library system","Sort execution flow","main.k",60
"Library system","Sort execution flow","borrow_library_items.k",553
"Library system","Sort execution flow","borrow_library_items.k",591
"Library system","Sort execution flow","main.k",23
"Library system","Sort execution flow","borrow_library_items.k",54
"Library system","Sort execution flow","borrow_library_items.k",409
"Library system","Sort execution flow","borrow_library_items.k",213
"Library system","Sort execution flow","borrow_library_items.k",276
"Library system","Sort execution flow","borrow_library_items.k",487
"Library system","Sort execution flow","borrow_library_items.k",58
"Library system","Sort execution flow","borrow_library_items.k",132
"Library system","Sort execution flow","borrow_library_items.k",151
"Library system","Look for changed and unchanged objects","book.k",30
"Library system","Look for changed and unchanged objects","main.k",44
"Library system","Look for changed and unchanged objects","borrow_library_items.k",422
"Library system","Look for changed and unchanged objects","borrow_library_items.k",11
"Library system","Look for changed and unchanged objects","borrow_library_items.k",268
"Library system","Look for changed and unchanged objects","mock_card_reader.k",14
"Library system","Look for changed and unchanged objects","borrow_library_items.k",8
"Library system","Look for changed and unchanged objects","borrow_library_items.k",104
"Library system","Look for changed and unchanged objects","mock_card_reader.k",13
"Library system","Look for changed and unchanged objects","borrow_library_items.k",9
"Library system","Look for changed and unchanged objects","borrow_library_items.k",79
"Library system","Look for changed and unchanged objects","borrow_library_items.k",96
"Library system","Look for changed and unchanged objects","borrow_library_items.k",184
"Library system","Look for changed and unchanged objects","borrow_library_items.k",109
"Library system","Look for changed and unchanged objects","borrow_library_items.k",108
"Library system","Look for changed and unchanged objects","borrow_library_items.k",27
"Library system","Describe objects interactions","borrow_library_items.k",95
"Library system","Describe objects interactions","borrow_library_items.k",340
"Library system","Describe objects interactions","borrow_library_items.k",59
"Library system","Describe objects interactions","borrow_library_items.k",134
"Library system","Describe objects interactions","borrow_library_items.k",181
"Library system","Describe objects interactions","borrow_library_items.k",50
"Library system","Describe objects interactions","borrow_library_items.k",77
"Library system","Describe objects interactions","borrow_library_items.k",204
"Library system","Describe objects interactions","borrow_library_items.k",30
"Library system","Describe objects interactions","borrow_library_items.k",133
"Library system","Check implemented features","borrow_library_items.k",211
"Library system","Check implemented features","borrow_library_items.k",73
"Library system","Check implemented features","borrow_library_items.k",41
"Library system","Check implemented features","borrow_library_items.k",12
"Library system","Check implemented features","borrow_library_items.k",137
"Library system","Check implemented features","borrow_library_items.k",48
"Library system","Check implemented features","borrow_library_items.k",160
"Library system","Check implemented features","item_record.k",13
"Library system","Check implemented features","paper_printer.k",17
"Library system","Check implemented features","mock_book_scanner.k",47
"Library system","Check implemented features","paper_printer.k",6
"Library system","Check implemented features","item_record.k",7
"Library system","Check implemented features","book.k",8
"Library system","Check implemented features","main.k",12
"Library system","Check implemented features","mock_card_reader.k",18
"Library system","Check implemented features","mock_card_reader.k",12
"Library system","Check implemented features","borrow_library_items.k",430
"Library system","Check implemented features","borrow_library_items.k",225
