"system","task","file","ds"
"Spell checker","Check implemented features","main.k",76
"Spell checker","Check implemented features","mutable_string.k",43
"Spell checker","Check implemented features","spell_check.k",230
"Spell checker","Check implemented features","range.k",13
"Spell checker","Check implemented features","spell_check.k",5
"Spell checker","Check implemented features","range.k",18
"Spell checker","Check implemented features","online_dictionary.k",18
"Spell checker","Check implemented features","range.k",12
"Spell checker","Check implemented features","spell_check.k",36
"Spell checker","Check implemented features","main.k",229
"Spell checker","Check implemented features","main.k",118
"Spell checker","Check implemented features","mutable_string.k",24
"Spell checker","Check implemented features","mutable_string.k",17
"Spell checker","Check implemented features","range.k",7
"Spell checker","Check implemented features","spell_check.k",9
"Spell checker","Check implemented features","online_dictionary.k",11
"Spell checker","Check implemented features","range.k",212
"Spell checker","Check implemented features","online_dictionary.k",11
"Spell checker","Check implemented features","spell_check.k",5
"Spell checker","Check implemented features","mutable_string.k",5
"Spell checker","Check implemented features","main.k",260
"Spell checker","Check implemented features","spell_check.k",20
"Spell checker","Check implemented features","spell_check.k",239
"Spell checker","Check implemented features","online_dictionary.k",233
"Spell checker","Check implemented features","mutable_string.k",6
"Spell checker","Check implemented features","spell_check.k",166
"Spell checker","Check implemented features","spell_check.k",1167
"Spell checker","Check implemented features","range.k",6
"Spell checker","Check implemented features","online_dictionary.k",108
"Spell checker","Check implemented features","range.k",6
"Spell checker","Check implemented features","spell_check.k",143
"Spell checker","Check implemented features","spell_check.k",119
"Spell checker","Check implemented features","spell_check.k",408
"Spell checker","Check implemented features","spell_check.k",59
"Spell checker","Check implemented features","spell_check.k",53
"Spell checker","Check implemented features","spell_check.k",11
"Spell checker","Check implemented features","spell_check.k",10
"Spell checker","Check implemented features","mutable_string.k",6
"Spell checker","Check implemented features","online_dictionary.k",17
"Spell checker","Check implemented features","online_dictionary.k",8
"Spell checker","Check implemented features","mutable_string.k",24
"Spell checker","Check implemented features","spell_check.k",9
"Spell checker","Check implemented features","spell_check.k",226
"Spell checker","Check implemented features","range.k",11
"Spell checker","Check implemented features","range.k",8
"Spell checker","Check implemented features","range.k",20
"Spell checker","Check implemented features","online_dictionary.k",7
"Spell checker","Check implemented features","range.k",14
"Spell checker","Describe objects interactions","online_dictionary.k",93
"Spell checker","Describe objects interactions","spell_check.k",133
"Spell checker","Describe objects interactions","spell_check.k",192
"Spell checker","Describe objects interactions","range.k",8
"Spell checker","Describe objects interactions","spell_check.k",173
"Spell checker","Describe objects interactions","range.k",4
"Spell checker","Describe objects interactions","spell_check.k",109
"Spell checker","Describe objects interactions","mutable_string.k",11
"Spell checker","Describe objects interactions","online_dictionary.k",31
"Spell checker","Describe objects interactions","range.k",4
"Spell checker","Describe objects interactions","spell_check.k",122
"Spell checker","Describe objects interactions","spell_check.k",170
"Spell checker","Look for changed and unchanged objects","main.k",37
"Spell checker","Look for changed and unchanged objects","spell_check.k",74
"Spell checker","Look for changed and unchanged objects","spell_check.k",31
"Spell checker","Look for changed and unchanged objects","main.k",32
"Spell checker","Look for changed and unchanged objects","mutable_string.k",9
"Spell checker","Look for changed and unchanged objects","spell_check.k",339
"Spell checker","Look for changed and unchanged objects","spell_check.k",260
"Spell checker","Look for changed and unchanged objects","mutable_string.k",10
"Spell checker","Look for changed and unchanged objects","online_dictionary.k",38
"Spell checker","Look for changed and unchanged objects","mutable_string.k",23
"Spell checker","Look for changed and unchanged objects","online_dictionary.k",8
"Spell checker","Look for changed and unchanged objects","online_dictionary.k",20
"Spell checker","Look for changed and unchanged objects","range.k",227
"Spell checker","Look for changed and unchanged objects","mutable_string.k",5
"Spell checker","Look for changed and unchanged objects","main.k",25
"Spell checker","Look for changed and unchanged objects","spell_check.k",7
"Spell checker","Look for changed and unchanged objects","online_dictionary.k",18
"Spell checker","Look for changed and unchanged objects","range.k",6
"Spell checker","Look for changed and unchanged objects","spell_check.k",143
"Spell checker","Look for changed and unchanged objects","mutable_string.k",20
"Spell checker","Look for changed and unchanged objects","main.k",21
"Spell checker","Look for changed and unchanged objects","online_dictionary.k",31
"Spell checker","Look for changed and unchanged objects","range.k",10
"Spell checker","Look for changed and unchanged objects","range.k",11
"Spell checker","Look for changed and unchanged objects","spell_check.k",161
"Spell checker","Look for changed and unchanged objects","spell_check.k",75
"Spell checker","Look for changed and unchanged objects","main.k",35
"Spell checker","Look for changed and unchanged objects","mutable_string.k",39
"Spell checker","Look for changed and unchanged objects","main.k",9
"Spell checker","Look for changed and unchanged objects","spell_check.k",54
"Spell checker","Look for changed and unchanged objects","spell_check.k",38
"Spell checker","Look for changed and unchanged objects","spell_check.k",201
"Spell checker","Look for changed and unchanged objects","spell_check.k",132
"Spell checker","Sort execution flow","main.k",38
"Spell checker","Sort execution flow","main.k",15
"Spell checker","Sort execution flow","mutable_string.k",8
"Spell checker","Sort execution flow","online_dictionary.k",11
"Spell checker","Sort execution flow","range.k",5
"Spell checker","Sort execution flow","spell_check.k",11
"Spell checker","Sort execution flow","mutable_string.k",10
"Spell checker","Sort execution flow","main.k",95
"Spell checker","Sort execution flow","mutable_string.k",6
"Spell checker","Sort execution flow","spell_check.k",650
"Spell checker","Sort execution flow","spell_check.k",24
"Spell checker","Sort execution flow","online_dictionary.k",34
"Spell checker","Sort execution flow","spell_check.k",243
"Spell checker","Sort execution flow","online_dictionary.k",22
"Spell checker","Sort execution flow","range.k",4
"Spell checker","Sort execution flow","spell_check.k",18
"Spell checker","Sort execution flow","spell_check.k",126
"Spell checker","Sort execution flow","spell_check.k",310
