"system","task","file","ds"
"Library system","Check implemented features","main.k",25
"Library system","Check implemented features","borrow_library_items.k",511
"Library system","Check implemented features","paper_printer.k",54
"Library system","Check implemented features","borrow_library_items.k",21
"Library system","Check implemented features","item_record.k",13
"Library system","Check implemented features","mock_card_reader.k",117
"Library system","Check implemented features","book.k",69
"Library system","Check implemented features","book.k",6
"Library system","Check implemented features","mock_book_scanner.k",239
"Library system","Check implemented features","mock_card_reader.k",10
"Library system","Check implemented features","borrow_library_items.k",745
"Library system","Check implemented features","borrow_library_items.k",599
"Library system","Check implemented features","borrow_library_items.k",6
"Library system","Sort execution flow","borrow_library_items.k",15
"Library system","Sort execution flow","borrow_library_items.k",68
"Library system","Sort execution flow","borrow_library_items.k",131
"Library system","Sort execution flow","borrow_library_items.k",370
"Library system","Look for changed and unchanged objects","borrow_library_items.k",84
"Library system","Look for changed and unchanged objects","borrow_library_items.k",15
"Library system","Look for changed and unchanged objects","mock_book_scanner.k",98
"Library system","Look for changed and unchanged objects","borrow_library_items.k",10
"Library system","Look for changed and unchanged objects","borrow_library_items.k",14
"Library system","Look for changed and unchanged objects","borrow_library_items.k",86
"Library system","Describe objects interactions","borrow_library_items.k",45
"Library system","Describe objects interactions","borrow_library_items.k",71
"Library system","Describe objects interactions","borrow_library_items.k",32
"Library system","Describe objects interactions","borrow_library_items.k",131
"Library system","Describe objects interactions","borrow_library_items.k",55
"Library system","Describe objects interactions","borrow_library_items.k",37
"Library system","Describe objects interactions","borrow_library_items.k",38
"Library system","Describe objects interactions","borrow_library_items.k",35
"Library system","Describe objects interactions","borrow_library_items.k",104
"Library system","Describe objects interactions","borrow_library_items.k",73
