"system","task","file","ds"
"Menu system","Look for changed and unchanged objects","Main.java",75
"Menu system","Look for changed and unchanged objects","MenuInterface.java",31
"Menu system","Look for changed and unchanged objects","MenuInterface.java",59
"Menu system","Look for changed and unchanged objects","Main.java",19
"Menu system","Look for changed and unchanged objects","MenuInterface.java",57
"Menu system","Look for changed and unchanged objects","Main.java",20
"Menu system","Look for changed and unchanged objects","MenuComponent.java",20
"Menu system","Look for changed and unchanged objects","Main.java",27
"Menu system","Look for changed and unchanged objects","MenuInterface.java",38
"Menu system","Look for changed and unchanged objects","MenuInterface.java",100
"Menu system","Look for changed and unchanged objects","Main.java",225
"Menu system","Look for changed and unchanged objects","MenuInterface.java",46
"Menu system","Look for changed and unchanged objects","MenuInterface.java",11
"Menu system","Look for changed and unchanged objects","Main.java",35
"Menu system","Look for changed and unchanged objects","MenuItem.java",77
"Menu system","Look for changed and unchanged objects","MenuInterface.java",306
"Menu system","Look for changed and unchanged objects","MenuComponent.java",74
"Menu system","Look for changed and unchanged objects","MenuStructure.java",7
"Menu system","Look for changed and unchanged objects","MenuItem.java",31
"Menu system","Look for changed and unchanged objects","MenuStructure.java",16
"Menu system","Look for changed and unchanged objects","MenuComponent.java",8
"Menu system","Look for changed and unchanged objects","Main.java",48
"Menu system","Look for changed and unchanged objects","MenuItem.java",46
"Menu system","Look for changed and unchanged objects","MenuItem.java",24
"Menu system","Look for changed and unchanged objects","MenuStructure.java",118
"Menu system","Look for changed and unchanged objects","MenuStructure.java",152
"Menu system","Look for changed and unchanged objects","MenuStructure.java",170
"Menu system","Look for changed and unchanged objects","Main.java",118
"Menu system","Look for changed and unchanged objects","MenuInterface.java",53
"Menu system","Look for changed and unchanged objects","MenuItem.java",22
"Menu system","Look for changed and unchanged objects","MenuStructure.java",132
"Menu system","Look for changed and unchanged objects","MenuInterface.java",131
"Menu system","Look for changed and unchanged objects","MenuStructure.java",66
"Menu system","Look for changed and unchanged objects","Main.java",90
"Menu system","Look for changed and unchanged objects","MenuItem.java",12
"Menu system","Look for changed and unchanged objects","Main.java",88
"Menu system","Look for changed and unchanged objects","MenuInterface.java",350
"Menu system","Describe objects interactions","MenuItem.java",35
"Menu system","Describe objects interactions","MenuItem.java",21
"Menu system","Describe objects interactions","MenuInterface.java",30
"Menu system","Describe objects interactions","MenuItem.java",81
"Menu system","Describe objects interactions","MenuItem.java",43
"Menu system","Describe objects interactions","MenuInterface.java",17
"Menu system","Describe objects interactions","MenuStructure.java",17
"Menu system","Describe objects interactions","Main.java",37
"Menu system","Describe objects interactions","MenuInterface.java",170
"Menu system","Describe objects interactions","MenuInterface.java",214
"Menu system","Describe objects interactions","MenuInterface.java",313
"Menu system","Describe objects interactions","MenuComponent.java",30
"Menu system","Describe objects interactions","MenuStructure.java",22
"Menu system","Describe objects interactions","MenuInterface.java",144
"Menu system","Describe objects interactions","MenuComponent.java",42
"Menu system","Describe objects interactions","MenuItem.java",20
"Menu system","Describe objects interactions","MenuStructure.java",19
"Menu system","Describe objects interactions","MenuItem.java",14
"Menu system","Describe objects interactions","MenuStructure.java",9
"Menu system","Describe objects interactions","MenuInterface.java",66
"Menu system","Describe objects interactions","Main.java",87
"Menu system","Describe objects interactions","MenuStructure.java",61
"Menu system","Describe objects interactions","Main.java",39
"Menu system","Describe objects interactions","MenuItem.java",48
"Menu system","Describe objects interactions","MenuItem.java",32
"Menu system","Describe objects interactions","MenuStructure.java",25
"Menu system","Describe objects interactions","MenuItem.java",12
"Menu system","Describe objects interactions","MenuInterface.java",6
"Menu system","Describe objects interactions","MenuInterface.java",94
"Menu system","Describe objects interactions","MenuComponent.java",80
"Menu system","Describe objects interactions","MenuStructure.java",32
"Menu system","Describe objects interactions","MenuStructure.java",106
"Menu system","Describe objects interactions","MenuStructure.java",90
"Menu system","Describe objects interactions","MenuItem.java",14
"Menu system","Describe objects interactions","MenuInterface.java",112
"Menu system","Describe objects interactions","MenuComponent.java",25
"Menu system","Describe objects interactions","MenuStructure.java",68
"Menu system","Describe objects interactions","MenuItem.java",44
"Menu system","Describe objects interactions","MenuItem.java",49
"Menu system","Describe objects interactions","MenuInterface.java",30
"Menu system","Describe objects interactions","MenuItem.java",79
"Menu system","Describe objects interactions","MenuStructure.java",178
"Menu system","Describe objects interactions","MenuInterface.java",136
"Menu system","Describe objects interactions","MenuInterface.java",96
"Menu system","Describe objects interactions","MenuStructure.java",29
"Menu system","Describe objects interactions","MenuInterface.java",62
"Menu system","Describe objects interactions","MenuComponent.java",38
"Menu system","Describe objects interactions","MenuStructure.java",138
"Menu system","Describe objects interactions","MenuInterface.java",115
"Menu system","Describe objects interactions","MenuItem.java",27
"Menu system","Describe objects interactions","MenuComponent.java",33
"Menu system","Describe objects interactions","MenuStructure.java",40
"Menu system","Describe objects interactions","MenuItem.java",24
"Menu system","Describe objects interactions","MenuInterface.java",41
"Menu system","Describe objects interactions","MenuStructure.java",101
"Menu system","Describe objects interactions","MenuStructure.java",205
"Menu system","Describe objects interactions","MenuItem.java",13
"Menu system","Describe objects interactions","MenuInterface.java",10
"Menu system","Describe objects interactions","Main.java",41
"Menu system","Sort execution flow","Main.java",182
"Menu system","Sort execution flow","Main.java",28
"Menu system","Sort execution flow","MenuInterface.java",46
"Menu system","Sort execution flow","MenuComponent.java",20
"Menu system","Sort execution flow","MenuStructure.java",79
"Menu system","Sort execution flow","MenuStructure.java",84
"Menu system","Sort execution flow","MenuStructure.java",25
"Menu system","Sort execution flow","MenuStructure.java",52
"Menu system","Sort execution flow","MenuInterface.java",49
"Menu system","Sort execution flow","MenuInterface.java",107
"Menu system","Sort execution flow","MenuStructure.java",57
"Menu system","Sort execution flow","MenuStructure.java",42
"Menu system","Sort execution flow","MenuInterface.java",97
"Menu system","Sort execution flow","MenuStructure.java",232
"Menu system","Check implemented features","MenuStructure.java",12
"Menu system","Check implemented features","MenuItem.java",11
"Menu system","Check implemented features","MenuStructure.java",10
"Menu system","Check implemented features","MenuInterface.java",35
"Menu system","Check implemented features","MenuItem.java",11
"Menu system","Check implemented features","MenuStructure.java",12
"Menu system","Check implemented features","Main.java",27
"Menu system","Check implemented features","Main.java",11
"Menu system","Check implemented features","MenuComponent.java",25
"Menu system","Check implemented features","MenuStructure.java",23
"Menu system","Check implemented features","MenuItem.java",8
"Menu system","Check implemented features","MenuInterface.java",28
"Menu system","Check implemented features","MenuItem.java",12
"Menu system","Check implemented features","MenuStructure.java",25
"Menu system","Check implemented features","MenuInterface.java",11
"Menu system","Check implemented features","MenuItem.java",14
"Menu system","Check implemented features","MenuInterface.java",30
"Menu system","Check implemented features","MenuStructure.java",193
"Menu system","Check implemented features","MenuComponent.java",31
"Menu system","Check implemented features","Main.java",17
"Menu system","Check implemented features","MenuStructure.java",64
"Menu system","Check implemented features","MenuItem.java",11
"Menu system","Check implemented features","MenuInterface.java",9
"Menu system","Check implemented features","MenuItem.java",10
"Menu system","Check implemented features","MenuStructure.java",58
