"system","task","file","ds"
"Spell checker","Sort execution flow","Range.java",11
"Spell checker","Sort execution flow","Document.java",11
"Spell checker","Sort execution flow","Main.java",188
"Spell checker","Sort execution flow","Main.java",127
"Spell checker","Sort execution flow","SpellChecker.java",117
"Spell checker","Sort execution flow","Main.java",95
"Spell checker","Sort execution flow","Main.java",101
"Spell checker","Sort execution flow","SpellChecker.java",285
"Spell checker","Sort execution flow","Dictionary.java",45
"Spell checker","Sort execution flow","OnlineDictionary.java",221
"Spell checker","Sort execution flow","Main.java",25
"Spell checker","Sort execution flow","SpellChecker.java",358
"Spell checker","Sort execution flow","Main.java",29
"Spell checker","Sort execution flow","SpellChecker.java",44
"Spell checker","Sort execution flow","SpellChecker.java",73
"Spell checker","Sort execution flow","SpellChecker.java",173
"Spell checker","Sort execution flow","SpellChecker.java",15
"Spell checker","Sort execution flow","SpellChecker.java",70
"Spell checker","Sort execution flow","SpellChecker.java",12
"Spell checker","Sort execution flow","SpellChecker.java",316
"Spell checker","Sort execution flow","OnlineDictionary.java",100
"Spell checker","Sort execution flow","SpellChecker.java",32
"Spell checker","Sort execution flow","SpellChecker.java",302
"Spell checker","Sort execution flow","SpellChecker.java",33
"Spell checker","Sort execution flow","SpellChecker.java",81
"Spell checker","Sort execution flow","OnlineDictionary.java",71
"Spell checker","Sort execution flow","SpellChecker.java",18
"Spell checker","Sort execution flow","SpellChecker.java",48
"Spell checker","Sort execution flow","SpellChecker.java",119
"Spell checker","Sort execution flow","Main.java",15
"Spell checker","Look for changed and unchanged objects","Main.java",27
"Spell checker","Look for changed and unchanged objects","SpellChecker.java",92
"Spell checker","Look for changed and unchanged objects","SpellChecker.java",53
"Spell checker","Look for changed and unchanged objects","SpellChecker.java",5
"Spell checker","Look for changed and unchanged objects","MutableString.java",132
"Spell checker","Look for changed and unchanged objects","SpellChecker.java",248
"Spell checker","Look for changed and unchanged objects","Document.java",105
"Spell checker","Look for changed and unchanged objects","Document.java",13
"Spell checker","Look for changed and unchanged objects","Document.java",106
"Spell checker","Look for changed and unchanged objects","IDocument.java",17
"Spell checker","Look for changed and unchanged objects","Document.java",17
"Spell checker","Look for changed and unchanged objects","MutableString.java",56
"Spell checker","Look for changed and unchanged objects","Utilities.java",21
"Spell checker","Look for changed and unchanged objects","Word.java",14
"Spell checker","Look for changed and unchanged objects","Utilities.java",16
"Spell checker","Look for changed and unchanged objects","Main.java",28
"Spell checker","Look for changed and unchanged objects","OnlineDictionary.java",79
"Spell checker","Look for changed and unchanged objects","Document.java",158
"Spell checker","Describe objects interactions","Main.java",21
"Spell checker","Describe objects interactions","Utilities.java",94
"Spell checker","Describe objects interactions","Document.java",63
"Spell checker","Describe objects interactions","OnlineDictionary.java",68
"Spell checker","Describe objects interactions","OnlineDictionary.java",36
"Spell checker","Describe objects interactions","Word.java",22
"Spell checker","Describe objects interactions","Word.java",43
"Spell checker","Describe objects interactions","MutableString.java",8
"Spell checker","Describe objects interactions","Dictionary.java",7
"Spell checker","Describe objects interactions","SpellChecker.java",12
"Spell checker","Describe objects interactions","Range.java",34
"Spell checker","Describe objects interactions","IDocument.java",6
"Spell checker","Describe objects interactions","Document.java",9
"Spell checker","Describe objects interactions","OnlineDictionary.java",8
"Spell checker","Describe objects interactions","Main.java",7
"Spell checker","Describe objects interactions","Utilities.java",10
"Spell checker","Describe objects interactions","Word.java",10
"Spell checker","Describe objects interactions","Document.java",180
"Spell checker","Check implemented features","SpellChecker.java",66
